# Exported from ProBuilder
# http://www.procore3d.com/probuilder
# 2/9/2019 4:30:39 PM

mtllib ./FloorTop.mtl
o FloorTop

g floor (6)
v 15.99998 4 52
v 1.999985 4 52
v 15.99998 5 52
v 1.999985 5 52
v 1.999985 4 36
v 12.99998 4 36
v 1.999985 5 36
v 12.99998 5 36
v 12.99998 4 36
v 14.99998 4 36
v 12.99998 5 36
v 14.99998 5 36
v 14.99998 4 36
v 15.99998 4 36
v 14.99998 5 36
v 15.99998 5 36
v 15.99998 5 36
v 1.999985 5 36
v 14.99998 5 36
v 12.99998 5 36
v 14.99998 4 36
v 12.99998 4 36
v 15.99998 4 36
v 1.999985 4 36
v 15.99998 4 36
v 1.999985 4 36
v 15.99998 4 52
v 1.999985 4 52
v 15.99998 5 36
v 15.99998 4 36
v 15.99998 5 52
v 15.99998 4 52
v 1.999985 4 36
v 1.999985 5 36
v 1.999985 4 52
v 1.999985 5 52
v 1.999985 5 36
v 15.99998 5 36
v 1.999985 5 52
v 15.99998 5 52

vn 0 0 1
vn 0 0 1
vn 0 0 1
vn 0 0 1
vn 0 0 -1
vn 0 0 -1
vn 0 0 -1
vn 0 0 -1
vn 0 0 -1
vn 0 0 -1
vn 0 0 -1
vn 0 0 -1
vn 0 0 -1
vn 0 0 -1
vn 0 0 -1
vn 0 0 -1
vn 0 0 0
vn 0 0 0
vn 0 0 0
vn 0 0 0
vn 0 0 0
vn 0 0 0
vn 0 0 0
vn 0 0 0
vn 0 -1 0
vn 0 -1 0
vn 0 -1 0
vn 0 -1 0
vn 1 0 0
vn 1 0 0
vn 1 0 0
vn 1 0 0
vn -1 0 0
vn -1 0 0
vn -1 0 0
vn -1 0 0
vn 0 1 0
vn 0 1 0
vn 0 1 0
vn 0 1 0

vt 1 0
vt -13 0
vt 1 1
vt -13 1
vt 13 0
vt 2 0
vt 13 1
vt 2 1
vt 2 0
vt 0 0
vt 2 1
vt 0 1
vt 0 0
vt -1 0
vt 0 1
vt -1 1
vt 0 0
vt 0 0
vt 0 0
vt 0 0
vt 0 0
vt 0 0
vt 0 0
vt 0 0
vt 1 0
vt -13 0
vt 1 16
vt -13 16
vt 0 1
vt 0 0
vt -16 1
vt -16 0
vt 0 0
vt 0 1
vt 16 0
vt 16 1
vt 13 0
vt -1 0
vt 13 16
vt -1 16

g floor (6)
usemtl M06_WallBlack
f 3/3/3 4/4/4 2/2/2 1/1/1
f 7/7/7 8/8/8 6/6/6 5/5/5
f 11/11/11 12/12/12 10/10/10 9/9/9
f 15/15/15 16/16/16 14/14/14 13/13/13
f 19/19/19 20/20/20 18/18/18 17/17/17
f 23/23/23 24/24/24 22/22/22 21/21/21
f 27/27/27 28/28/28 26/26/26 25/25/25
f 31/31/31 32/32/32 30/30/30 29/29/29
f 35/35/35 36/36/36 34/34/34 33/33/33
f 39/39/39 40/40/40 38/38/38 37/37/37

